%YAML 1.1
%TAG !u! tag:unity3d.com,2011:
--- !u!1 &7094977340588366727
GameObject:
  m_ObjectHideFlags: 0
  m_CorrespondingSourceObject: {fileID: 0}
  m_PrefabInstance: {fileID: 0}
  m_PrefabAsset: {fileID: 0}
  serializedVersion: 6
  m_Component:
  - component: {fileID: 6556307555316582679}
  - component: {fileID: 4220265212815064180}
  m_Layer: 0
  m_Name: Player
  m_TagString: Untagged
  m_Icon: {fileID: 0}
  m_NavMeshLayer: 0
  m_StaticEditorFlags: 0
  m_IsActive: 1
--- !u!4 &6556307555316582679
Transform:
  m_ObjectHideFlags: 0
  m_CorrespondingSourceObject: {fileID: 0}
  m_PrefabInstance: {fileID: 0}
  m_PrefabAsset: {fileID: 0}
  m_GameObject: {fileID: 7094977340588366727}
  serializedVersion: 2
  m_LocalRotation: {x: 0, y: 0, z: 0, w: 1}
  m_LocalPosition: {x: 22.210217, y: -8.786317, z: 23.948788}
  m_LocalScale: {x: 1, y: 1, z: 1}
  m_ConstrainProportionsScale: 0
  m_Children:
  - {fileID: 5126527961139664760}
  - {fileID: 2862278905927072855}
  - {fileID: 937451010987979973}
  - {fileID: 3697362953775235280}
  - {fileID: 6116018315020930700}
  m_Father: {fileID: 0}
  m_LocalEulerAnglesHint: {x: 0, y: 0, z: 0}
--- !u!114 &4220265212815064180
MonoBehaviour:
  m_ObjectHideFlags: 0
  m_CorrespondingSourceObject: {fileID: 0}
  m_PrefabInstance: {fileID: 0}
  m_PrefabAsset: {fileID: 0}
  m_GameObject: {fileID: 7094977340588366727}
  m_Enabled: 1
  m_EditorHideFlags: 0
  m_Script: {fileID: 11500000, guid: f1defef5199db274082486815c7fa38e, type: 3}
  m_Name: 
  m_EditorClassIdentifier: 
  _oxygenText: {fileID: 0}
  _oxygenImage: {fileID: 0}
  _depletionTime: 60
--- !u!1001 &4167400225773288301
PrefabInstance:
  m_ObjectHideFlags: 0
  serializedVersion: 2
  m_Modification:
    serializedVersion: 3
    m_TransformParent: {fileID: 937451010987979973}
    m_Modifications:
    - target: {fileID: 1998607369030296865, guid: ca56e99e84bc7be408f2e027c841b1a5,
        type: 3}
      propertyPath: m_LocalPosition.x
      value: 0
      objectReference: {fileID: 0}
    - target: {fileID: 1998607369030296865, guid: ca56e99e84bc7be408f2e027c841b1a5,
        type: 3}
      propertyPath: m_LocalPosition.y
      value: 0
      objectReference: {fileID: 0}
    - target: {fileID: 1998607369030296865, guid: ca56e99e84bc7be408f2e027c841b1a5,
        type: 3}
      propertyPath: m_LocalPosition.z
      value: 0
      objectReference: {fileID: 0}
    - target: {fileID: 1998607369030296865, guid: ca56e99e84bc7be408f2e027c841b1a5,
        type: 3}
      propertyPath: m_LocalRotation.w
      value: 0.002993354
      objectReference: {fileID: 0}
    - target: {fileID: 1998607369030296865, guid: ca56e99e84bc7be408f2e027c841b1a5,
        type: 3}
      propertyPath: m_LocalRotation.x
      value: -0.002993354
      objectReference: {fileID: 0}
    - target: {fileID: 1998607369030296865, guid: ca56e99e84bc7be408f2e027c841b1a5,
        type: 3}
      propertyPath: m_LocalRotation.y
      value: 0.7071005
      objectReference: {fileID: 0}
    - target: {fileID: 1998607369030296865, guid: ca56e99e84bc7be408f2e027c841b1a5,
        type: 3}
      propertyPath: m_LocalRotation.z
      value: 0.7071005
      objectReference: {fileID: 0}
    - target: {fileID: 1998607369030296865, guid: ca56e99e84bc7be408f2e027c841b1a5,
        type: 3}
      propertyPath: m_LocalEulerAnglesHint.x
      value: -90
      objectReference: {fileID: 0}
    - target: {fileID: 1998607369030296865, guid: ca56e99e84bc7be408f2e027c841b1a5,
        type: 3}
      propertyPath: m_LocalEulerAnglesHint.y
      value: 0
      objectReference: {fileID: 0}
    - target: {fileID: 1998607369030296865, guid: ca56e99e84bc7be408f2e027c841b1a5,
        type: 3}
      propertyPath: m_LocalEulerAnglesHint.z
      value: 0
      objectReference: {fileID: 0}
    - target: {fileID: 3929966861291148728, guid: ca56e99e84bc7be408f2e027c841b1a5,
        type: 3}
      propertyPath: m_Name
      value: BubblesParticleSystem
      objectReference: {fileID: 0}
    m_RemovedComponents: []
    m_RemovedGameObjects: []
    m_AddedGameObjects: []
    m_AddedComponents: []
  m_SourcePrefab: {fileID: 100100000, guid: ca56e99e84bc7be408f2e027c841b1a5, type: 3}
--- !u!4 &2479775564464791116 stripped
Transform:
  m_CorrespondingSourceObject: {fileID: 1998607369030296865, guid: ca56e99e84bc7be408f2e027c841b1a5,
    type: 3}
  m_PrefabInstance: {fileID: 4167400225773288301}
  m_PrefabAsset: {fileID: 0}
--- !u!1001 &4253012990495331769
PrefabInstance:
  m_ObjectHideFlags: 0
  serializedVersion: 2
  m_Modification:
    serializedVersion: 3
    m_TransformParent: {fileID: 6556307555316582679}
    m_Modifications:
    - target: {fileID: 1992104595683069851, guid: f0271df749728104eac22c3d897fd8ce,
        type: 3}
      propertyPath: m_Name
      value: UI_EventSystem
      objectReference: {fileID: 0}
    - target: {fileID: 8063073397250431797, guid: f0271df749728104eac22c3d897fd8ce,
        type: 3}
      propertyPath: m_RootOrder
      value: 4
      objectReference: {fileID: 0}
    - target: {fileID: 8063073397250431797, guid: f0271df749728104eac22c3d897fd8ce,
        type: 3}
      propertyPath: m_LocalScale.x
      value: 1
      objectReference: {fileID: 0}
    - target: {fileID: 8063073397250431797, guid: f0271df749728104eac22c3d897fd8ce,
        type: 3}
      propertyPath: m_LocalScale.y
      value: 1
      objectReference: {fileID: 0}
    - target: {fileID: 8063073397250431797, guid: f0271df749728104eac22c3d897fd8ce,
        type: 3}
      propertyPath: m_LocalScale.z
      value: 1
      objectReference: {fileID: 0}
    - target: {fileID: 8063073397250431797, guid: f0271df749728104eac22c3d897fd8ce,
        type: 3}
      propertyPath: m_LocalPosition.x
      value: -22.210217
      objectReference: {fileID: 0}
    - target: {fileID: 8063073397250431797, guid: f0271df749728104eac22c3d897fd8ce,
        type: 3}
      propertyPath: m_LocalPosition.y
      value: 8.786317
      objectReference: {fileID: 0}
    - target: {fileID: 8063073397250431797, guid: f0271df749728104eac22c3d897fd8ce,
        type: 3}
      propertyPath: m_LocalPosition.z
      value: -23.948788
      objectReference: {fileID: 0}
    - target: {fileID: 8063073397250431797, guid: f0271df749728104eac22c3d897fd8ce,
        type: 3}
      propertyPath: m_LocalRotation.w
      value: 1
      objectReference: {fileID: 0}
    - target: {fileID: 8063073397250431797, guid: f0271df749728104eac22c3d897fd8ce,
        type: 3}
      propertyPath: m_LocalRotation.x
      value: -0
      objectReference: {fileID: 0}
    - target: {fileID: 8063073397250431797, guid: f0271df749728104eac22c3d897fd8ce,
        type: 3}
      propertyPath: m_LocalRotation.y
      value: -0
      objectReference: {fileID: 0}
    - target: {fileID: 8063073397250431797, guid: f0271df749728104eac22c3d897fd8ce,
        type: 3}
      propertyPath: m_LocalRotation.z
      value: -0
      objectReference: {fileID: 0}
    - target: {fileID: 8063073397250431797, guid: f0271df749728104eac22c3d897fd8ce,
        type: 3}
      propertyPath: m_LocalEulerAnglesHint.x
      value: 0
      objectReference: {fileID: 0}
    - target: {fileID: 8063073397250431797, guid: f0271df749728104eac22c3d897fd8ce,
        type: 3}
      propertyPath: m_LocalEulerAnglesHint.y
      value: 0
      objectReference: {fileID: 0}
    - target: {fileID: 8063073397250431797, guid: f0271df749728104eac22c3d897fd8ce,
        type: 3}
      propertyPath: m_LocalEulerAnglesHint.z
      value: 0
      objectReference: {fileID: 0}
    m_RemovedComponents: []
    m_RemovedGameObjects: []
    m_AddedGameObjects: []
    m_AddedComponents: []
  m_SourcePrefab: {fileID: 100100000, guid: f0271df749728104eac22c3d897fd8ce, type: 3}
--- !u!4 &6116018315020930700 stripped
Transform:
  m_CorrespondingSourceObject: {fileID: 8063073397250431797, guid: f0271df749728104eac22c3d897fd8ce,
    type: 3}
  m_PrefabInstance: {fileID: 4253012990495331769}
  m_PrefabAsset: {fileID: 0}
--- !u!1001 &4253012991678481658
PrefabInstance:
  m_ObjectHideFlags: 0
  serializedVersion: 2
  m_Modification:
    serializedVersion: 3
    m_TransformParent: {fileID: 6556307555316582679}
    m_Modifications:
    - target: {fileID: 1663187150, guid: 2f7f3dde7ae722a4aafffe20691ad702, type: 3}
      propertyPath: thirdPersonInputs
      value: 
      objectReference: {fileID: 4244626405643678211}
    - target: {fileID: 1663187150, guid: 2f7f3dde7ae722a4aafffe20691ad702, type: 3}
      propertyPath: starterAssetsInputs
      value: 
      objectReference: {fileID: 4244626405643678211}
    - target: {fileID: 597308369130767402, guid: 2f7f3dde7ae722a4aafffe20691ad702,
        type: 3}
      propertyPath: m_Pivot.x
      value: 0
      objectReference: {fileID: 0}
    - target: {fileID: 597308369130767402, guid: 2f7f3dde7ae722a4aafffe20691ad702,
        type: 3}
      propertyPath: m_Pivot.y
      value: 0
      objectReference: {fileID: 0}
    - target: {fileID: 597308369130767402, guid: 2f7f3dde7ae722a4aafffe20691ad702,
        type: 3}
      propertyPath: m_RootOrder
      value: 3
      objectReference: {fileID: 0}
    - target: {fileID: 597308369130767402, guid: 2f7f3dde7ae722a4aafffe20691ad702,
        type: 3}
      propertyPath: m_AnchorMax.x
      value: 0
      objectReference: {fileID: 0}
    - target: {fileID: 597308369130767402, guid: 2f7f3dde7ae722a4aafffe20691ad702,
        type: 3}
      propertyPath: m_AnchorMax.y
      value: 0
      objectReference: {fileID: 0}
    - target: {fileID: 597308369130767402, guid: 2f7f3dde7ae722a4aafffe20691ad702,
        type: 3}
      propertyPath: m_AnchorMin.x
      value: 0
      objectReference: {fileID: 0}
    - target: {fileID: 597308369130767402, guid: 2f7f3dde7ae722a4aafffe20691ad702,
        type: 3}
      propertyPath: m_AnchorMin.y
      value: 0
      objectReference: {fileID: 0}
    - target: {fileID: 597308369130767402, guid: 2f7f3dde7ae722a4aafffe20691ad702,
        type: 3}
      propertyPath: m_SizeDelta.x
      value: 0
      objectReference: {fileID: 0}
    - target: {fileID: 597308369130767402, guid: 2f7f3dde7ae722a4aafffe20691ad702,
        type: 3}
      propertyPath: m_SizeDelta.y
      value: 0
      objectReference: {fileID: 0}
    - target: {fileID: 597308369130767402, guid: 2f7f3dde7ae722a4aafffe20691ad702,
        type: 3}
      propertyPath: m_LocalPosition.x
      value: 0
      objectReference: {fileID: 0}
    - target: {fileID: 597308369130767402, guid: 2f7f3dde7ae722a4aafffe20691ad702,
        type: 3}
      propertyPath: m_LocalPosition.y
      value: 0
      objectReference: {fileID: 0}
    - target: {fileID: 597308369130767402, guid: 2f7f3dde7ae722a4aafffe20691ad702,
        type: 3}
      propertyPath: m_LocalPosition.z
      value: 0
      objectReference: {fileID: 0}
    - target: {fileID: 597308369130767402, guid: 2f7f3dde7ae722a4aafffe20691ad702,
        type: 3}
      propertyPath: m_LocalRotation.w
      value: 1
      objectReference: {fileID: 0}
    - target: {fileID: 597308369130767402, guid: 2f7f3dde7ae722a4aafffe20691ad702,
        type: 3}
      propertyPath: m_LocalRotation.x
      value: 0
      objectReference: {fileID: 0}
    - target: {fileID: 597308369130767402, guid: 2f7f3dde7ae722a4aafffe20691ad702,
        type: 3}
      propertyPath: m_LocalRotation.y
      value: 0
      objectReference: {fileID: 0}
    - target: {fileID: 597308369130767402, guid: 2f7f3dde7ae722a4aafffe20691ad702,
        type: 3}
      propertyPath: m_LocalRotation.z
      value: 0
      objectReference: {fileID: 0}
    - target: {fileID: 597308369130767402, guid: 2f7f3dde7ae722a4aafffe20691ad702,
        type: 3}
      propertyPath: m_AnchoredPosition.x
      value: 0
      objectReference: {fileID: 0}
    - target: {fileID: 597308369130767402, guid: 2f7f3dde7ae722a4aafffe20691ad702,
        type: 3}
      propertyPath: m_AnchoredPosition.y
      value: 0
      objectReference: {fileID: 0}
    - target: {fileID: 597308369130767402, guid: 2f7f3dde7ae722a4aafffe20691ad702,
        type: 3}
      propertyPath: m_LocalEulerAnglesHint.x
      value: 0
      objectReference: {fileID: 0}
    - target: {fileID: 597308369130767402, guid: 2f7f3dde7ae722a4aafffe20691ad702,
        type: 3}
      propertyPath: m_LocalEulerAnglesHint.y
      value: 0
      objectReference: {fileID: 0}
    - target: {fileID: 597308369130767402, guid: 2f7f3dde7ae722a4aafffe20691ad702,
        type: 3}
      propertyPath: m_LocalEulerAnglesHint.z
      value: 0
      objectReference: {fileID: 0}
    - target: {fileID: 6751388636123340836, guid: 2f7f3dde7ae722a4aafffe20691ad702,
        type: 3}
      propertyPath: m_Name
      value: UI_Canvas_StarterAssetsInputs_Joysticks
      objectReference: {fileID: 0}
    - target: {fileID: 6751388636123340836, guid: 2f7f3dde7ae722a4aafffe20691ad702,
        type: 3}
      propertyPath: m_IsActive
      value: 0
      objectReference: {fileID: 0}
    - target: {fileID: 8890774966862588244, guid: 2f7f3dde7ae722a4aafffe20691ad702,
        type: 3}
      propertyPath: playerInput
      value: 
      objectReference: {fileID: 453084650579209843}
    m_RemovedComponents: []
    m_RemovedGameObjects: []
    m_AddedGameObjects: []
    m_AddedComponents: []
  m_SourcePrefab: {fileID: 100100000, guid: 2f7f3dde7ae722a4aafffe20691ad702, type: 3}
--- !u!224 &3697362953775235280 stripped
RectTransform:
  m_CorrespondingSourceObject: {fileID: 597308369130767402, guid: 2f7f3dde7ae722a4aafffe20691ad702,
    type: 3}
  m_PrefabInstance: {fileID: 4253012991678481658}
  m_PrefabAsset: {fileID: 0}
--- !u!1001 &4313866245218740378
PrefabInstance:
  m_ObjectHideFlags: 0
  serializedVersion: 2
  m_Modification:
    serializedVersion: 3
    m_TransformParent: {fileID: 6556307555316582679}
    m_Modifications:
    - target: {fileID: -4977880609278741668, guid: 2d3a85ecde41a8246a79669975912b74,
        type: 3}
      propertyPath: m_RenderPostProcessing
      value: 1
      objectReference: {fileID: 0}
    - target: {fileID: -4977880609278741668, guid: 2d3a85ecde41a8246a79669975912b74,
        type: 3}
      propertyPath: m_RequiresOpaqueTextureOption
      value: 1
      objectReference: {fileID: 0}
    - target: {fileID: 9005220659476430818, guid: 2d3a85ecde41a8246a79669975912b74,
        type: 3}
      propertyPath: m_RootOrder
      value: 0
      objectReference: {fileID: 0}
    - target: {fileID: 9005220659476430818, guid: 2d3a85ecde41a8246a79669975912b74,
        type: 3}
      propertyPath: m_LocalPosition.x
      value: -22.210217
      objectReference: {fileID: 0}
    - target: {fileID: 9005220659476430818, guid: 2d3a85ecde41a8246a79669975912b74,
        type: 3}
      propertyPath: m_LocalPosition.y
      value: 10.161317
      objectReference: {fileID: 0}
    - target: {fileID: 9005220659476430818, guid: 2d3a85ecde41a8246a79669975912b74,
        type: 3}
      propertyPath: m_LocalPosition.z
      value: -23.948788
      objectReference: {fileID: 0}
    - target: {fileID: 9005220659476430818, guid: 2d3a85ecde41a8246a79669975912b74,
        type: 3}
      propertyPath: m_LocalRotation.w
      value: 1
      objectReference: {fileID: 0}
    - target: {fileID: 9005220659476430818, guid: 2d3a85ecde41a8246a79669975912b74,
        type: 3}
      propertyPath: m_LocalRotation.x
      value: -0
      objectReference: {fileID: 0}
    - target: {fileID: 9005220659476430818, guid: 2d3a85ecde41a8246a79669975912b74,
        type: 3}
      propertyPath: m_LocalRotation.y
      value: -0
      objectReference: {fileID: 0}
    - target: {fileID: 9005220659476430818, guid: 2d3a85ecde41a8246a79669975912b74,
        type: 3}
      propertyPath: m_LocalRotation.z
      value: -0
      objectReference: {fileID: 0}
    - target: {fileID: 9005220659476430818, guid: 2d3a85ecde41a8246a79669975912b74,
        type: 3}
      propertyPath: m_LocalEulerAnglesHint.x
      value: 0
      objectReference: {fileID: 0}
    - target: {fileID: 9005220659476430818, guid: 2d3a85ecde41a8246a79669975912b74,
        type: 3}
      propertyPath: m_LocalEulerAnglesHint.y
      value: 0
      objectReference: {fileID: 0}
    - target: {fileID: 9005220659476430818, guid: 2d3a85ecde41a8246a79669975912b74,
        type: 3}
      propertyPath: m_LocalEulerAnglesHint.z
      value: 0
      objectReference: {fileID: 0}
    - target: {fileID: 9005220659476430821, guid: 2d3a85ecde41a8246a79669975912b74,
        type: 3}
      propertyPath: far clip plane
      value: 500
      objectReference: {fileID: 0}
    - target: {fileID: 9005220659476430821, guid: 2d3a85ecde41a8246a79669975912b74,
        type: 3}
      propertyPath: orthographic size
      value: 10
      objectReference: {fileID: 0}
    - target: {fileID: 9005220659476430823, guid: 2d3a85ecde41a8246a79669975912b74,
        type: 3}
      propertyPath: m_Name
      value: MainCamera
      objectReference: {fileID: 0}
    m_RemovedComponents: []
    m_RemovedGameObjects: []
    m_AddedGameObjects: []
    m_AddedComponents: []
  m_SourcePrefab: {fileID: 100100000, guid: 2d3a85ecde41a8246a79669975912b74, type: 3}
--- !u!4 &5126527961139664760 stripped
Transform:
  m_CorrespondingSourceObject: {fileID: 9005220659476430818, guid: 2d3a85ecde41a8246a79669975912b74,
    type: 3}
  m_PrefabInstance: {fileID: 4313866245218740378}
  m_PrefabAsset: {fileID: 0}
--- !u!1001 &6782772647021209901
PrefabInstance:
  m_ObjectHideFlags: 0
  serializedVersion: 2
  m_Modification:
    serializedVersion: 3
    m_TransformParent: {fileID: 6556307555316582679}
    m_Modifications:
    - target: {fileID: 8762286023885395077, guid: 9c489a8547f4d9e4387da15a4ff82c81,
        type: 3}
      propertyPath: m_Name
      value: PlayerFollowCamera
      objectReference: {fileID: 0}
    - target: {fileID: 8762286023885395322, guid: 9c489a8547f4d9e4387da15a4ff82c81,
        type: 3}
      propertyPath: m_RootOrder
      value: 1
      objectReference: {fileID: 0}
    - target: {fileID: 8762286023885395322, guid: 9c489a8547f4d9e4387da15a4ff82c81,
        type: 3}
      propertyPath: m_LocalPosition.x
      value: -22.210217
      objectReference: {fileID: 0}
    - target: {fileID: 8762286023885395322, guid: 9c489a8547f4d9e4387da15a4ff82c81,
        type: 3}
      propertyPath: m_LocalPosition.y
      value: 10.161317
      objectReference: {fileID: 0}
    - target: {fileID: 8762286023885395322, guid: 9c489a8547f4d9e4387da15a4ff82c81,
        type: 3}
      propertyPath: m_LocalPosition.z
      value: -23.948788
      objectReference: {fileID: 0}
    - target: {fileID: 8762286023885395322, guid: 9c489a8547f4d9e4387da15a4ff82c81,
        type: 3}
      propertyPath: m_LocalRotation.w
      value: 1
      objectReference: {fileID: 0}
    - target: {fileID: 8762286023885395322, guid: 9c489a8547f4d9e4387da15a4ff82c81,
        type: 3}
      propertyPath: m_LocalRotation.x
      value: -0
      objectReference: {fileID: 0}
    - target: {fileID: 8762286023885395322, guid: 9c489a8547f4d9e4387da15a4ff82c81,
        type: 3}
      propertyPath: m_LocalRotation.y
      value: -0
      objectReference: {fileID: 0}
    - target: {fileID: 8762286023885395322, guid: 9c489a8547f4d9e4387da15a4ff82c81,
        type: 3}
      propertyPath: m_LocalRotation.z
      value: -0
      objectReference: {fileID: 0}
    - target: {fileID: 8762286023885395322, guid: 9c489a8547f4d9e4387da15a4ff82c81,
        type: 3}
      propertyPath: m_LocalEulerAnglesHint.x
      value: 0
      objectReference: {fileID: 0}
    - target: {fileID: 8762286023885395322, guid: 9c489a8547f4d9e4387da15a4ff82c81,
        type: 3}
      propertyPath: m_LocalEulerAnglesHint.y
      value: 0
      objectReference: {fileID: 0}
    - target: {fileID: 8762286023885395322, guid: 9c489a8547f4d9e4387da15a4ff82c81,
        type: 3}
      propertyPath: m_LocalEulerAnglesHint.z
      value: 0
      objectReference: {fileID: 0}
    - target: {fileID: 8762286023885395323, guid: 9c489a8547f4d9e4387da15a4ff82c81,
        type: 3}
      propertyPath: m_Follow
      value: 
      objectReference: {fileID: 5242107653240477475}
    m_RemovedComponents: []
    m_RemovedGameObjects: []
    m_AddedGameObjects: []
    m_AddedComponents: []
  m_SourcePrefab: {fileID: 100100000, guid: 9c489a8547f4d9e4387da15a4ff82c81, type: 3}
--- !u!4 &2862278905927072855 stripped
Transform:
  m_CorrespondingSourceObject: {fileID: 8762286023885395322, guid: 9c489a8547f4d9e4387da15a4ff82c81,
    type: 3}
  m_PrefabInstance: {fileID: 6782772647021209901}
  m_PrefabAsset: {fileID: 0}
--- !u!1001 &8204767106804910123
PrefabInstance:
  m_ObjectHideFlags: 0
  serializedVersion: 2
  m_Modification:
    serializedVersion: 3
    m_TransformParent: {fileID: 6556307555316582679}
    m_Modifications:
    - target: {fileID: 5393215578589016655, guid: c5efc39a8aaf6e64ea40e9ad573e9b47,
        type: 3}
      propertyPath: m_Materials.Array.data[0]
      value: 
      objectReference: {fileID: 2100000, guid: 6b911390c5825014e8377183a7837d3f, type: 2}
    - target: {fileID: 8616685848737228372, guid: c5efc39a8aaf6e64ea40e9ad573e9b47,
        type: 3}
      propertyPath: m_Name
      value: PlayerCapsule
      objectReference: {fileID: 0}
    - target: {fileID: 8997996947095583982, guid: c5efc39a8aaf6e64ea40e9ad573e9b47,
        type: 3}
      propertyPath: m_RootOrder
      value: 2
      objectReference: {fileID: 0}
    - target: {fileID: 8997996947095583982, guid: c5efc39a8aaf6e64ea40e9ad573e9b47,
        type: 3}
      propertyPath: m_LocalPosition.x
      value: -22.210217
      objectReference: {fileID: 0}
    - target: {fileID: 8997996947095583982, guid: c5efc39a8aaf6e64ea40e9ad573e9b47,
        type: 3}
      propertyPath: m_LocalPosition.y
      value: 8.786317
      objectReference: {fileID: 0}
    - target: {fileID: 8997996947095583982, guid: c5efc39a8aaf6e64ea40e9ad573e9b47,
        type: 3}
      propertyPath: m_LocalPosition.z
      value: -23.948788
      objectReference: {fileID: 0}
    - target: {fileID: 8997996947095583982, guid: c5efc39a8aaf6e64ea40e9ad573e9b47,
        type: 3}
      propertyPath: m_LocalRotation.w
      value: 1
      objectReference: {fileID: 0}
    - target: {fileID: 8997996947095583982, guid: c5efc39a8aaf6e64ea40e9ad573e9b47,
        type: 3}
      propertyPath: m_LocalRotation.x
      value: -0
      objectReference: {fileID: 0}
    - target: {fileID: 8997996947095583982, guid: c5efc39a8aaf6e64ea40e9ad573e9b47,
        type: 3}
      propertyPath: m_LocalRotation.y
      value: -0
      objectReference: {fileID: 0}
    - target: {fileID: 8997996947095583982, guid: c5efc39a8aaf6e64ea40e9ad573e9b47,
        type: 3}
      propertyPath: m_LocalRotation.z
      value: -0
      objectReference: {fileID: 0}
    - target: {fileID: 8997996947095583982, guid: c5efc39a8aaf6e64ea40e9ad573e9b47,
        type: 3}
      propertyPath: m_LocalEulerAnglesHint.x
      value: 0
      objectReference: {fileID: 0}
    - target: {fileID: 8997996947095583982, guid: c5efc39a8aaf6e64ea40e9ad573e9b47,
        type: 3}
      propertyPath: m_LocalEulerAnglesHint.y
      value: 0
      objectReference: {fileID: 0}
    - target: {fileID: 8997996947095583982, guid: c5efc39a8aaf6e64ea40e9ad573e9b47,
        type: 3}
      propertyPath: m_LocalEulerAnglesHint.z
      value: 0
      objectReference: {fileID: 0}
    m_RemovedComponents: []
    m_RemovedGameObjects: []
    m_AddedGameObjects:
    - targetCorrespondingSourceObject: {fileID: 8997996947095583982, guid: c5efc39a8aaf6e64ea40e9ad573e9b47,
        type: 3}
      insertIndex: -1
      addedObject: {fileID: 2479775564464791116}
    m_AddedComponents:
    - targetCorrespondingSourceObject: {fileID: 8616685848737228372, guid: c5efc39a8aaf6e64ea40e9ad573e9b47,
        type: 3}
      insertIndex: -1
      addedObject: {fileID: 9127253643326994208}
  m_SourcePrefab: {fileID: 100100000, guid: c5efc39a8aaf6e64ea40e9ad573e9b47, type: 3}
--- !u!114 &453084650579209843 stripped
MonoBehaviour:
  m_CorrespondingSourceObject: {fileID: 8616685848737228376, guid: c5efc39a8aaf6e64ea40e9ad573e9b47,
    type: 3}
  m_PrefabInstance: {fileID: 8204767106804910123}
  m_PrefabAsset: {fileID: 0}
  m_GameObject: {fileID: 453084650579209855}
  m_Enabled: 1
  m_EditorHideFlags: 0
  m_Script: {fileID: 11500000, guid: 62899f850307741f2a39c98a8b639597, type: 3}
  m_Name: 
  m_EditorClassIdentifier: 
--- !u!1 &453084650579209855 stripped
GameObject:
  m_CorrespondingSourceObject: {fileID: 8616685848737228372, guid: c5efc39a8aaf6e64ea40e9ad573e9b47,
    type: 3}
  m_PrefabInstance: {fileID: 8204767106804910123}
  m_PrefabAsset: {fileID: 0}
--- !u!114 &9127253643326994208
MonoBehaviour:
  m_ObjectHideFlags: 0
  m_CorrespondingSourceObject: {fileID: 0}
  m_PrefabInstance: {fileID: 0}
  m_PrefabAsset: {fileID: 0}
  m_GameObject: {fileID: 453084650579209855}
  m_Enabled: 1
  m_EditorHideFlags: 0
  m_Script: {fileID: 11500000, guid: 31ab8152dd1b33b4e8a6ec414a932619, type: 3}
  m_Name: 
  m_EditorClassIdentifier: 
  oxygenAmountRange: {x: 40, y: 60}
--- !u!4 &937451010987979973 stripped
Transform:
  m_CorrespondingSourceObject: {fileID: 8997996947095583982, guid: c5efc39a8aaf6e64ea40e9ad573e9b47,
    type: 3}
  m_PrefabInstance: {fileID: 8204767106804910123}
  m_PrefabAsset: {fileID: 0}
--- !u!114 &4244626405643678211 stripped
MonoBehaviour:
  m_CorrespondingSourceObject: {fileID: 5420857361349278248, guid: c5efc39a8aaf6e64ea40e9ad573e9b47,
    type: 3}
  m_PrefabInstance: {fileID: 8204767106804910123}
  m_PrefabAsset: {fileID: 0}
  m_GameObject: {fileID: 453084650579209855}
  m_Enabled: 1
  m_EditorHideFlags: 0
  m_Script: {fileID: 11500000, guid: e087ecce43ebbff45a1b360637807d93, type: 3}
  m_Name: 
  m_EditorClassIdentifier: 
--- !u!4 &5242107653240477475 stripped
Transform:
  m_CorrespondingSourceObject: {fileID: 4135013735270702856, guid: c5efc39a8aaf6e64ea40e9ad573e9b47,
    type: 3}
  m_PrefabInstance: {fileID: 8204767106804910123}
  m_PrefabAsset: {fileID: 0}
